# Blender v2.68 (sub 0) OBJ File: 'playingfield.blend'
# www.blender.org
o Text.014_Mesh.010
v -0.086140 0.424962 0.000000
v -0.043642 0.473886 0.000000
v 0.031744 0.508822 0.000000
v 0.117720 0.486614 0.000000
v 0.169668 0.437362 0.000000
v 0.198550 0.353714 0.000000
v 0.184598 0.248076 0.000000
v 0.102466 0.169455 0.000000
v 0.159489 0.116622 0.000000
v 0.197719 0.026980 0.000000
v 0.205301 -0.063912 0.000000
v 0.173513 -0.172891 0.000000
v 0.091272 -0.254073 0.000000
v -0.048397 -0.277698 0.000000
v -0.138939 -0.224328 0.000000
v -0.193186 -0.152078 0.000000
v -0.214907 -0.062673 0.000000
v -0.210498 0.033797 0.000000
v -0.158558 0.129890 0.000000
v -0.057241 0.200764 0.000000
v -0.097808 0.271144 0.000000
v -0.107401 0.346095 0.000000
v -0.016654 0.384500 0.000000
v -0.043229 0.308181 0.000000
v -0.026799 0.241085 0.000000
v 0.005607 0.232894 0.000000
v 0.029440 0.275765 0.000000
v 0.025005 0.361862 0.000000
v 0.098891 -0.037453 0.000000
v 0.071056 0.038354 0.000000
v 0.017858 0.083494 0.000000
v -0.040771 0.091695 0.000000
v -0.088424 0.071303 0.000000
v -0.142569 0.000872 0.000000
v -0.146315 -0.119419 0.000000
v -0.108036 -0.185483 0.000000
v -0.047643 -0.224883 0.000000
v 0.043530 -0.202039 0.000000
v 0.093720 -0.116521 0.000000
v -0.086140 0.424962 -0.300000
v -0.043642 0.473886 -0.300000
v 0.031744 0.508822 -0.300000
v 0.117720 0.486614 -0.300000
v 0.169668 0.437362 -0.300000
v 0.198550 0.353714 -0.300000
v 0.184598 0.248076 -0.300000
v 0.102466 0.169455 -0.300000
v 0.159489 0.116622 -0.300000
v 0.197719 0.026980 -0.300000
v 0.205301 -0.063912 -0.300000
v 0.173513 -0.172891 -0.300000
v 0.091272 -0.254073 -0.300000
v -0.048397 -0.277698 -0.300000
v -0.138939 -0.224328 -0.300000
v -0.193186 -0.152078 -0.300000
v -0.214907 -0.062673 -0.300000
v -0.210498 0.033797 -0.300000
v -0.158558 0.129890 -0.300000
v -0.057241 0.200764 -0.300000
v -0.097808 0.271144 -0.300000
v -0.107401 0.346095 -0.300000
v -0.016654 0.384500 -0.300000
v -0.043229 0.308181 -0.300000
v -0.026799 0.241085 -0.300000
v 0.005607 0.232894 -0.300000
v 0.029440 0.275765 -0.300000
v 0.025005 0.361862 -0.300000
v 0.098891 -0.037453 -0.300000
v 0.071056 0.038354 -0.300000
v 0.017858 0.083494 -0.300000
v -0.040771 0.091695 -0.300000
v -0.088424 0.071303 -0.300000
v -0.142569 0.000872 -0.300000
v -0.146315 -0.119419 -0.300000
v -0.108036 -0.185483 -0.300000
v -0.047643 -0.224883 -0.300000
v 0.043530 -0.202039 -0.300000
v 0.093720 -0.116521 -0.300000
vn -0.000000 0.000000 1.000000
vn 0.000000 -0.000000 -1.000000
vn -0.938720 -0.344682 0.000000
vn -0.477474 -0.878646 0.000000
vn -0.420468 0.907307 -0.000000
vn -0.754942 0.655792 -0.000000
vn -0.991907 -0.126964 0.000000
vn 0.166783 -0.985994 0.000000
vn 0.702512 -0.711672 0.000000
vn 0.991391 -0.130936 0.000000
vn 0.865244 0.501350 -0.000000
vn 0.245032 0.969515 -0.000000
vn 0.971305 0.237838 -0.000000
vn 0.688025 0.725687 -0.000000
vn -0.997869 0.065252 -0.000000
vn -0.971731 -0.236092 0.000000
vn 0.999515 -0.031130 0.000000
vn -0.998676 -0.051446 0.000000
vn 0.945241 0.326373 -0.000000
vn 0.996539 0.083128 -0.000000
vn 0.792806 -0.609474 0.000000
vn -0.862440 0.506159 -0.000000
vn 0.679643 0.733543 -0.000000
vn -0.646994 -0.762495 0.000000
vn -0.507801 -0.861474 0.000000
vn 0.919842 0.392290 -0.000000
vn -0.138541 -0.990357 0.000000
vn -0.243038 0.970017 -0.000000
vn 0.959993 -0.280023 0.000000
vn -0.998957 0.045657 -0.000000
vn 0.944386 -0.328839 0.000000
vn -0.799686 -0.600419 0.000000
vn -0.965531 0.260288 -0.000000
vn -0.573207 0.819410 -0.000000
vn -0.874022 0.485886 -0.000000
vn 0.250089 0.968223 0.000000
vn -0.879711 0.475509 -0.000000
vn 0.393419 -0.919360 0.000000
vn 0.546398 0.837526 -0.000000
vn -0.866380 -0.499385 0.000000
vn 0.691493 -0.722383 0.000000
vn -0.420469 0.907307 0.000000
s off
f 4//1 3//1 2//1
f 5//1 4//1 2//1
f 5//1 2//1 1//1
f 6//1 5//1 1//1
f 6//1 1//1 23//1
f 23//1 1//1 22//1
f 6//1 23//1 28//1
f 24//1 23//1 22//1
f 7//1 6//1 28//1
f 24//1 22//1 21//1
f 7//1 28//1 27//1
f 25//1 24//1 21//1
f 7//1 27//1 26//1
f 25//1 21//1 20//1
f 26//1 25//1 20//1
f 7//1 26//1 20//1
f 8//1 7//1 20//1
f 9//1 8//1 20//1
f 9//1 20//1 19//1
f 9//1 19//1 32//1
f 32//1 19//1 18//1
f 9//1 32//1 31//1
f 33//1 32//1 18//1
f 10//1 9//1 31//1
f 10//1 31//1 30//1
f 34//1 33//1 18//1
f 10//1 30//1 29//1
f 11//1 10//1 29//1
f 34//1 18//1 17//1
f 35//1 34//1 17//1
f 11//1 29//1 39//1
f 35//1 17//1 16//1
f 12//1 11//1 39//1
f 12//1 39//1 38//1
f 36//1 35//1 16//1
f 36//1 16//1 15//1
f 37//1 36//1 15//1
f 13//1 12//1 38//1
f 13//1 38//1 37//1
f 13//1 37//1 15//1
f 13//1 15//1 14//1
f 43//2 41//2 42//2
f 44//2 41//2 43//2
f 44//2 40//2 41//2
f 45//2 40//2 44//2
f 45//2 62//2 40//2
f 62//2 61//2 40//2
f 45//2 67//2 62//2
f 63//2 61//2 62//2
f 46//2 67//2 45//2
f 63//2 60//2 61//2
f 46//2 66//2 67//2
f 64//2 60//2 63//2
f 46//2 65//2 66//2
f 64//2 59//2 60//2
f 65//2 59//2 64//2
f 46//2 59//2 65//2
f 47//2 59//2 46//2
f 48//2 59//2 47//2
f 48//2 58//2 59//2
f 48//2 71//2 58//2
f 71//2 57//2 58//2
f 48//2 70//2 71//2
f 72//2 57//2 71//2
f 49//2 70//2 48//2
f 49//2 69//2 70//2
f 73//2 57//2 72//2
f 49//2 68//2 69//2
f 50//2 68//2 49//2
f 73//2 56//2 57//2
f 74//2 56//2 73//2
f 50//2 78//2 68//2
f 74//2 55//2 56//2
f 51//2 78//2 50//2
f 51//2 77//2 78//2
f 75//2 55//2 74//2
f 75//2 54//2 55//2
f 76//2 54//2 75//2
f 52//2 77//2 51//2
f 52//2 76//2 77//2
f 52//2 54//2 76//2
f 52//2 53//2 54//2
f 29//3 30//3 68//3
f 28//4 23//4 67//4
f 2//5 3//5 41//5
f 1//6 2//6 40//6
f 21//7 22//7 60//7
f 13//8 14//8 52//8
f 12//9 13//9 51//9
f 6//10 7//10 45//10
f 35//11 36//11 74//11
f 25//12 26//12 64//12
f 24//13 25//13 63//13
f 4//14 5//14 43//14
f 39//15 29//15 78//15
f 16//16 17//16 55//16
f 34//17 35//17 73//17
f 27//18 28//18 66//18
f 5//19 6//19 44//19
f 10//20 11//20 49//20
f 33//21 34//21 72//21
f 38//22 39//22 77//22
f 8//23 9//23 47//23
f 30//24 31//24 69//24
f 14//25 15//25 53//25
f 9//26 10//26 48//26
f 31//27 32//27 70//27
f 37//28 38//28 76//28
f 11//29 12//29 50//29
f 17//30 18//30 56//30
f 23//31 24//31 62//31
f 15//32 16//32 54//32
f 22//33 1//33 61//33
f 19//34 20//34 58//34
f 26//35 27//35 65//35
f 3//36 4//36 42//36
f 18//37 19//37 57//37
f 32//38 33//38 71//38
f 36//39 37//39 75//39
f 20//40 21//40 59//40
f 7//41 8//41 46//41
f 30//3 69//3 68//3
f 23//4 62//4 67//4
f 3//42 42//42 41//42
f 2//6 41//6 40//6
f 22//7 61//7 60//7
f 14//8 53//8 52//8
f 13//9 52//9 51//9
f 7//10 46//10 45//10
f 36//11 75//11 74//11
f 26//12 65//12 64//12
f 25//13 64//13 63//13
f 5//14 44//14 43//14
f 29//15 68//15 78//15
f 17//16 56//16 55//16
f 35//17 74//17 73//17
f 28//18 67//18 66//18
f 6//19 45//19 44//19
f 11//20 50//20 49//20
f 34//21 73//21 72//21
f 39//22 78//22 77//22
f 9//23 48//23 47//23
f 31//24 70//24 69//24
f 15//25 54//25 53//25
f 10//26 49//26 48//26
f 32//27 71//27 70//27
f 38//28 77//28 76//28
f 12//29 51//29 50//29
f 18//30 57//30 56//30
f 24//31 63//31 62//31
f 16//32 55//32 54//32
f 1//33 40//33 61//33
f 20//34 59//34 58//34
f 27//35 66//35 65//35
f 4//36 43//36 42//36
f 19//37 58//37 57//37
f 33//38 72//38 71//38
f 37//39 76//39 75//39
f 21//40 60//40 59//40
f 8//41 47//41 46//41
